-------------------------------------------------------------------------------
Test set: com.ko.impro.dao.impl.subcategory.SubCategoryDaoImplTest
-------------------------------------------------------------------------------
Tests run: 13, Failures: 1, Errors: 0, Skipped: 0, Time elapsed: 0.762 sec <<< FAILURE! - in com.ko.impro.dao.impl.subcategory.SubCategoryDaoImplTest
testEditSubCategory2  Time elapsed: 0.029 sec  <<< FAILURE!
org.opentest4j.AssertionFailedError: Loading Failed
	at com.ko.impro.dao.impl.subcategory.SubCategoryDaoImplTest.testEditSubCategory2(SubCategoryDaoImplTest.java:151)

