-------------------------------------------------------------------------------
Test set: com.ko.impro.dao.impl.gatekeeping.ProductGateKeepingDaoImplTest
-------------------------------------------------------------------------------
Tests run: 6, Failures: 2, Errors: 0, Skipped: 0, Time elapsed: 0.209 sec <<< FAILURE! - in com.ko.impro.dao.impl.gatekeeping.ProductGateKeepingDaoImplTest
testLoadProductGateKeepingID  Time elapsed: 0.015 sec  <<< FAILURE!
java.lang.AssertionError: Loading the iD failed
	at com.ko.impro.dao.impl.gatekeeping.ProductGateKeepingDaoImplTest.testLoadProductGateKeepingID(ProductGateKeepingDaoImplTest.java:98)

testPushGatekeepingProducts  Time elapsed: 0.021 sec  <<< FAILURE!
org.opentest4j.AssertionFailedError: Stored Procedure falied
	at com.ko.impro.dao.impl.gatekeeping.ProductGateKeepingDaoImplTest.testPushGatekeepingProducts(ProductGateKeepingDaoImplTest.java:122)

