-------------------------------------------------------------------------------
Test set: com.ko.impro.dao.impl.product.ArchiveProductDaoImplTest
-------------------------------------------------------------------------------
Tests run: 18, Failures: 0, Errors: 16, Skipped: 0, Time elapsed: 0.827 sec <<< FAILURE! - in com.ko.impro.dao.impl.product.ArchiveProductDaoImplTest
testSearchArchivedProductsBySegmentList  Time elapsed: 0.194 sec  <<< ERROR!
java.lang.NullPointerException
	at com.ko.impro.dao.impl.product.ArchiveProductDaoImplTest.testSearchArchivedProductsBySegmentList(ArchiveProductDaoImplTest.java:252)

testSearchArchivedProductsById  Time elapsed: 0.079 sec  <<< ERROR!
java.lang.NullPointerException
	at com.ko.impro.dao.impl.product.ArchiveProductDaoImplTest.testSearchArchivedProductsById(ArchiveProductDaoImplTest.java:342)

testGetArchivedProductDetails  Time elapsed: 0.018 sec  <<< ERROR!
java.lang.NullPointerException
	at com.ko.impro.dao.impl.product.ArchiveProductDaoImplTest.testGetArchivedProductDetails(ArchiveProductDaoImplTest.java:465)

testSearchArchivedProducts  Time elapsed: 0.064 sec  <<< ERROR!
java.lang.NullPointerException
	at com.ko.impro.dao.impl.product.ArchiveProductDaoImplTest.testSearchArchivedProducts(ArchiveProductDaoImplTest.java:78)

testSearchArchivedProductsByBrandList  Time elapsed: 0.007 sec  <<< ERROR!
java.lang.NullPointerException
	at com.ko.impro.dao.impl.product.ArchiveProductDaoImplTest.testSearchArchivedProductsByBrandList(ArchiveProductDaoImplTest.java:103)

testSearchArchivedProductsByFlavorList  Time elapsed: 0.147 sec  <<< ERROR!
java.lang.NullPointerException
	at com.ko.impro.dao.impl.product.ArchiveProductDaoImplTest.testSearchArchivedProductsByFlavorList(ArchiveProductDaoImplTest.java:226)

testSearchArchivedProductsByPackageList  Time elapsed: 0.014 sec  <<< ERROR!
java.lang.NullPointerException
	at com.ko.impro.dao.impl.product.ArchiveProductDaoImplTest.testSearchArchivedProductsByPackageList(ArchiveProductDaoImplTest.java:150)

testSearchArchivedProductsByDateRange  Time elapsed: 0.012 sec  <<< ERROR!
java.lang.NullPointerException
	at com.ko.impro.dao.impl.product.ArchiveProductDaoImplTest.testSearchArchivedProductsByDateRange(ArchiveProductDaoImplTest.java:387)

testSearchArchivedProductsBySubSegmentList  Time elapsed: 0.014 sec  <<< ERROR!
java.lang.NullPointerException
	at com.ko.impro.dao.impl.product.ArchiveProductDaoImplTest.testSearchArchivedProductsBySubSegmentList(ArchiveProductDaoImplTest.java:276)

testSearchArchivedProductsByManufacturerList  Time elapsed: 0.001 sec  <<< ERROR!
java.lang.NullPointerException
	at com.ko.impro.dao.impl.product.ArchiveProductDaoImplTest.testSearchArchivedProductsByManufacturerList(ArchiveProductDaoImplTest.java:123)

testSearchArchivedProductsByDate  Time elapsed: 0.015 sec  <<< ERROR!
java.lang.NullPointerException
	at com.ko.impro.dao.impl.product.ArchiveProductDaoImplTest.testSearchArchivedProductsByDate(ArchiveProductDaoImplTest.java:364)

testSearchArchivedProductsByCategoryList  Time elapsed: 0.009 sec  <<< ERROR!
java.lang.NullPointerException
	at com.ko.impro.dao.impl.product.ArchiveProductDaoImplTest.testSearchArchivedProductsByCategoryList(ArchiveProductDaoImplTest.java:176)

testSearchArchivedProductsBySubCategoryList  Time elapsed: 0.017 sec  <<< ERROR!
java.lang.NullPointerException
	at com.ko.impro.dao.impl.product.ArchiveProductDaoImplTest.testSearchArchivedProductsBySubCategoryList(ArchiveProductDaoImplTest.java:201)

testSearchArchivedProductsByNameList  Time elapsed: 0.013 sec  <<< ERROR!
java.lang.NullPointerException
	at com.ko.impro.dao.impl.product.ArchiveProductDaoImplTest.testSearchArchivedProductsByNameList(ArchiveProductDaoImplTest.java:298)

testSearchArchivedProductsByAll  Time elapsed: 0.119 sec  <<< ERROR!
java.lang.NullPointerException
	at com.ko.impro.dao.impl.product.ArchiveProductDaoImplTest.testSearchArchivedProductsByAll(ArchiveProductDaoImplTest.java:447)

testSearchArchivedProductsByUPC  Time elapsed: 0.017 sec  <<< ERROR!
java.lang.NullPointerException
	at com.ko.impro.dao.impl.product.ArchiveProductDaoImplTest.testSearchArchivedProductsByUPC(ArchiveProductDaoImplTest.java:320)

