-------------------------------------------------------------------------------
Test set: com.ko.impro.dao.impl.auditlog.AuditLogDaoImplTest
-------------------------------------------------------------------------------
Tests run: 2, Failures: 0, Errors: 0, Skipped: 0, Time elapsed: 21.702 sec - in com.ko.impro.dao.impl.auditlog.AuditLogDaoImplTest
