-------------------------------------------------------------------------------
Test set: com.ko.impro.dao.impl.manufacturer.ManufacturerDaoImplTest
-------------------------------------------------------------------------------
Tests run: 7, Failures: 0, Errors: 1, Skipped: 0, Time elapsed: 0.415 sec <<< FAILURE! - in com.ko.impro.dao.impl.manufacturer.ManufacturerDaoImplTest
testAddManufacturer  Time elapsed: 0.021 sec  <<< ERROR!
org.springframework.dao.DataIntegrityViolationException: could not execute batch; SQL [insert into Manufacturers (DistributorCode, ManufacturerName, ManufacturerViewingOrder, PayDelay, Supplier_Flag, ManufacturerCode) values (?, ?, ?, ?, ?, ?)]; constraint [null]; nested exception is org.hibernate.exception.ConstraintViolationException: could not execute batch
	at com.ko.impro.dao.impl.manufacturer.ManufacturerDaoImplTest.testAddManufacturer(ManufacturerDaoImplTest.java:71)
Caused by: org.hibernate.exception.ConstraintViolationException: could not execute batch
	at com.ko.impro.dao.impl.manufacturer.ManufacturerDaoImplTest.testAddManufacturer(ManufacturerDaoImplTest.java:71)
Caused by: java.sql.BatchUpdateException: Cannot insert duplicate key row in object 'dbo.Manufacturers' with unique index 'ManufacturerName'. The duplicate key value is (Checking 14).
	at com.ko.impro.dao.impl.manufacturer.ManufacturerDaoImplTest.testAddManufacturer(ManufacturerDaoImplTest.java:71)

